…
Oh-oh, data was stored incorrectly, and the columns have been merged together... let's fix that:

``` r
field_data <- field_data_raw_2014 %>% 
        tidyr::separate(., 
                        col = transect_number.quadrat.species.percent_cover, 
                        into = c("transect_number", "quadrat", "species", "percent_cover"),
                        sep = ",")  %>% tbl_df()

field_data # neat console output from tbl_df
```

    ## # A tibble: 5,098 × 4
    ##    transect_number quadrat                   species percent_cover
    ## *            <chr>   <chr>                     <chr>         <chr>
    ## 1                1       1          vulpia bromoides          15.0
    ## 2                1       1               briza minor          15.0
    ## 3                1       1         aira caryophyllea           0.5
    ## 4                1       1             romulea rosea           0.5
    ## 5                1       1         bromus hordeaceus           3.0
    ## 6                1       1 convolvulus angustissimus           1.0
    ## 7                1       1         solenogyne gunnii           5.0
    ## 8                1       1      calocephalus citreus           5.0
    ## 9                1       1     plantago gaudichaudii           5.0
    ## 10               1       1          oxalis perennans           0.5
    ## # ... with 5,088 more rows
…
``` r
analysis_data <- dplyr::left_join(field_data, species_lookup_table) %>% # this weird operator is a pipe
        dplyr::left_join(.,site_management_data)
```

    ## Joining, by = "species"

    ## Joining, by = "transect_number"

``` r
analysis_data # after
```

    ## # A tibble: 5,098 × 16
    ##    transect_number quadrat                   species percent_cover origin
    ##              <chr>   <chr>                     <chr>         <chr>  <chr>
    ## 1                1       1          vulpia bromoides          15.0      E
    ## 2                1       1               briza minor          15.0      E
    ## 3                1       1         aira caryophyllea           0.5      E
    ## 4                1       1             romulea rosea           0.5      E
    ## 5                1       1         bromus hordeaceus           3.0      E
    ## 6                1       1 convolvulus angustissimus           1.0      N
    ## 7                1       1         solenogyne gunnii           5.0      N
    ## 8                1       1      calocephalus citreus           5.0      N
    ## 9                1       1     plantago gaudichaudii           5.0      N
    ## 10               1       1          oxalis perennans           0.5      N
    ## # ... with 5,088 more rows, and 11 more variables: growth_form <chr>,
    ## #   type <chr>, size <chr>, date <chr>, orientation <chr>,
    ## #   assistant <chr>, management <chr>, burn_season <chr>,
    ## #   years_since <chr>, biomass_reduction_year <chr>, management_unit <chr>
…
### Grouped operations with `dplyr::group_by()`:

The `dplyr::group_by` function is the star of the show here, and we can avoid for-loops when we want to repeat the same operation on subsets or groups of a dataframe. This is particularly handy when we have nested grouping.

For example, the first two variables we want to create require that we `group_by` each transect, *then* each quadrat, *then* each type. The second set of variables require that we group by `transect` and `type` only: we want to know how many unique species occurred in each transect, for both exotic and native forbs.

We'll create each type of variable separately, starting with the percent cover variables:

``` r
analysis_data %>%
        dplyr::group_by(transect_number, quadrat, type) %>%
        dplyr::summarise(pc_type = sum(percent_cover)) # Gives us the percent cover for each type, in each quadrat
```

    ## Source: local data frame [1,980 x 4]
    ## Groups: transect_number, quadrat [?]
    ## 
    ##    transect_number quadrat  type pc_type
    ##              <int>   <int> <chr>   <dbl>
    ## 1                1       1    BG    14.5
    ## 2                1       1     E    34.0
    ## 3                1       1     L     2.0
    ## 4                1       1    NF    16.5
    ## 5                1       1    NG    35.5
    ## 6                1       2    BG    10.5
    ## 7                1       2     E    56.0
    ## 8                1       2     L     0.5
    ## 9                1       2    NF    15.5
    ## 10               1       2    NG    18.0
    ## # ... with 1,970 more rows

``` r
# now we want to take the mean of the type percent cover totals, over all quadrats, let's try again:
mean_percent_cover <- 
        analysis_data %>%
        group_by(transect_number, quadrat, type) %>%
        summarise(pc_type = sum(percent_cover)) %>%
        group_by(transect_number,type) %>%
        summarise(mean_pc_type = mean(pc_type))

mean_percent_cover
```

    ## Source: local data frame [233 x 3]
    ## Groups: transect_number [?]
    ## 
    ##    transect_number  type mean_pc_type
    ##              <int> <chr>        <dbl>
    ## 1                1    BG    32.300000
    ## 2                1     E    17.400000
    ## 3                1     L     1.777778
    ## 4                1    LM     0.500000
    ## 5                1    NF    21.450000
    ## 6                1    NG    28.750000
    ## 7                2    BG    33.750000
    ## 8                2     E    36.600000
    ## 9                2     L     0.500000
    ## 10               2    NF     6.000000
    ## # ... with 223 more rows

``` r
# But we only want the mean percent cover for the exotic species, and the native forbs:
# AND, we want them to be in separate columns.

mean_percent_cover %<>%
        tidyr::spread(., key = type, value = mean_pc_type) %>%
        select(transect_number, BG, E) %>%
        dplyr::rename(., E_pc = E, BG_pc = BG)

mean_percent_cover
```

    ## Source: local data frame [37 x 3]
    ## Groups: transect_number [37]
    ## 
    ##    transect_number BG_pc   E_pc
    ## *            <int> <dbl>  <dbl>
    ## 1                1 32.30 17.400
    ## 2                2 33.75 36.600
    ## 3                3 37.45 20.950
    ## 4                4 14.50 15.700
    ## 5                5 18.00  8.450
    ## 6                6 20.90  7.400
    ## 7                7 20.70 35.300
    ## 8                8 65.95 12.775
    ## 9                9 44.10  5.350
    ## 10              10 38.55  4.375
    ## # ... with 27 more rows
…
``` r
# Let's get the number of distinct species of Ecotics and Native Forbs, within each transect
diversity_vars <-
        analysis_data %>%
        filter(type == "NF" | type == "E") %>%
        group_by(transect_number, type) %>%
        distinct(species) %>%
        tally

# Let's get this into an appropriate shape for joining this onto the percent cover data:
diversity_vars
```

    ## Source: local data frame [74 x 3]
    ## Groups: transect_number [?]
    ## 
    ##    transect_number  type     n
    ##              <int> <chr> <int>
    ## 1                1     E    12
    ## 2                1    NF    12
    ## 3                2     E    12
    ## 4                2    NF     7
    ## 5                3     E    16
    ## 6                3    NF    10
    ## 7                4     E     5
    ## 8                4    NF     4
    ## 9                5     E     8
    ## 10               5    NF     4
    ## # ... with 64 more rows

Let's join these two data frames back together:

``` r
diversity_vars %<>%
        spread(key = type, value = n) %>%
        rename(E_diversity = E, NF_diversity = NF)
diversity_vars
```

    ## Source: local data frame [37 x 3]
    ## Groups: transect_number [37]
    ## 
    ##    transect_number E_diversity NF_diversity
    ## *            <int>       <int>        <int>
    ## 1                1          12           12
    ## 2                2          12            7
    ## 3                3          16           10
    ## 4                4           5            4
    ## 5                5           8            4
    ## 6                6           9            7
    ## 7                7          13            9
    ## 8                8           6            3
    ## 9                9           9           10
    ## 10              10          11           15
    ## # ... with 27 more rows
…
